<?xml version="1.0" encoding="UTF-8"?>
<testng-results skipped="0" failed="0" ignored="0" total="2" passed="2">
  <reporter-output>
  </reporter-output>
  <suite name="Suite" duration-ms="32016" started-at="2018-06-06T01:32:09Z" finished-at="2018-06-06T01:32:41Z">
    <groups>
    </groups>
    <test name="testProductDetails" duration-ms="15672" started-at="2018-06-06T01:32:09Z" finished-at="2018-06-06T01:32:25Z">
      <class name="web.tests.testProductDetails">
        <test-method status="PASS" signature="setUp()[pri:0, instance:web.tests.testProductDetails@2a5ca609]" name="setUp" is-config="true" duration-ms="14374" started-at="2018-06-06T01:32:09Z" finished-at="2018-06-06T01:32:23Z">
          <reporter-output>
          </reporter-output>
        </test-method> <!-- setUp -->
        <test-method status="PASS" signature="initialize()[pri:0, instance:web.tests.testProductDetails@2a5ca609]" name="initialize" is-config="true" duration-ms="0" started-at="2018-06-06T01:32:23Z" depends-on-methods="web.base.TestBase.setUp" finished-at="2018-06-06T01:32:23Z">
          <reporter-output>
          </reporter-output>
        </test-method> <!-- initialize -->
        <test-method status="PASS" signature="test()[pri:0, instance:web.tests.testProductDetails@2a5ca609]" name="test" duration-ms="562" started-at="2018-06-06T01:32:23Z" finished-at="2018-06-06T01:32:24Z">
          <reporter-output>
          </reporter-output>
        </test-method> <!-- test -->
        <test-method status="PASS" signature="tearDown()[pri:0, instance:web.tests.testProductDetails@2a5ca609]" name="tearDown" is-config="true" duration-ms="718" started-at="2018-06-06T01:32:24Z" finished-at="2018-06-06T01:32:25Z">
          <reporter-output>
          </reporter-output>
        </test-method> <!-- tearDown -->
      </class> <!-- web.tests.testProductDetails -->
    </test> <!-- testProductDetails -->
    <test name="testWalmartLogo" duration-ms="16232" started-at="2018-06-06T01:32:25Z" finished-at="2018-06-06T01:32:41Z">
      <class name="web.tests.testWalmartLogo">
        <test-method status="PASS" signature="setUp()[pri:0, instance:web.tests.testWalmartLogo@29774679]" name="setUp" is-config="true" duration-ms="11690" started-at="2018-06-06T01:32:25Z" finished-at="2018-06-06T01:32:36Z">
          <reporter-output>
          </reporter-output>
        </test-method> <!-- setUp -->
        <test-method status="PASS" signature="test()[pri:0, instance:web.tests.testWalmartLogo@29774679]" name="test" duration-ms="3678" started-at="2018-06-06T01:32:36Z" finished-at="2018-06-06T01:32:40Z">
          <reporter-output>
          </reporter-output>
        </test-method> <!-- test -->
        <test-method status="PASS" signature="initialize()[pri:0, instance:web.tests.testWalmartLogo@29774679]" name="initialize" is-config="true" duration-ms="0" started-at="2018-06-06T01:32:36Z" depends-on-methods="web.base.TestBase.setUp" finished-at="2018-06-06T01:32:36Z">
          <reporter-output>
          </reporter-output>
        </test-method> <!-- initialize -->
        <test-method status="PASS" signature="tearDown()[pri:0, instance:web.tests.testWalmartLogo@29774679]" name="tearDown" is-config="true" duration-ms="863" started-at="2018-06-06T01:32:40Z" finished-at="2018-06-06T01:32:41Z">
          <reporter-output>
          </reporter-output>
        </test-method> <!-- tearDown -->
      </class> <!-- web.tests.testWalmartLogo -->
    </test> <!-- testWalmartLogo -->
  </suite> <!-- Suite -->
  <suite name="Walmart_Automation" duration-ms="0" started-at="2018-06-06T01:32:41Z" finished-at="2018-06-06T01:32:41Z">
    <groups>
    </groups>
  </suite> <!-- Walmart_Automation -->
</testng-results>
